{
    "variables": {
        "Version": "0.1"
    },
    "links": {
        "sidebar": {
            "Site": "http://islamicworks.gitlab.io/ordem",
	    "Facebook": ""
        }
    },
    "plugins": [
        "glossary-tooltip",
        "richquotes",
        "anchors",
        "disqus",
        "search",
        "image-captions",
        "katex",
        "indexes",
        "jsfiddle",
        "ga"
    ],
    "pluginsConfig": {
        "glossary-tooltip":{
            "parseGlossaryItems": true
        },
        "disqus": {
            "shortName": "islamic-works-masnavi",
            "useIdentifier": true
        },
        "page-toc": {
            "selector": " .markdown-section h2, .markdown-section h3, .markdown-section h4",
            "position": "before-first"
        },
        "layout": {
            "headerPath": "layouts/header.html",
            "footerPath": "layouts/footer.html"
        },
        "richquotes": {
            "default": true
        },
        "bulk-redirect": {
            "basepath": "/",
            "redirectsFile": "redirects.json"
        },
        "ga": {
            "token": "UA-21710445-1",
            "configuration": "auto"
        },
        "sharing": {
            "facebook": true,
            "twitter": true,
            "google": true,
            "weibo": false,
            "instapaper": true,
            "vk": false,
            "all": [
                "facebook",
                "google",
                "twitter",
                "weibo",
                "instapaper",
                "vk"
            ]
        },
        "image-captions": {
            "caption": "Image _PAGE_LEVEL_._PAGE_IMAGE_NUMBER_ - _CAPTION_",
            "list_caption": "List image _BOOK_IMAGE_NUMBER_: _CAPTION_",
            "variable_name": "picturesList"
        }
    }, 
    "language": "pt"
}
